id,first_name,last_name,email,country,ip_address
1,Terry,Franklin,tfranklin0@wsj.com,Mexico,102.205.75.48
2,Walter,Owens,wowens1@cafepress.com,Portugal,63.143.186.215
3,Justin,Welch,jwelch2@uiuc.edu,Portugal,91.219.222.121
4,Joshua,Vasquez,jvasquez3@slashdot.org,China,20.145.155.122
5,Kevin,Alexander,kalexander4@ustream.tv,Portugal,49.70.208.105
6,Patrick,Schmidt,pschmidt5@nature.com,France,130.70.200.213
7,James,Spencer,jspencer6@slideshare.net,China,13.1.244.198
8,Henry,Green,hgreen7@yolasite.com,China,254.18.35.73
9,Diane,Powell,dpowell8@google.de,Myanmar,139.170.145.192
10,Jessica,Richardson,jrichardson9@princeton.edu,China,120.200.83.76
11,Juan,Evans,jevansa@google.co.uk,Ukraine,171.61.33.201
12,Phillip,Castillo,pcastillob@xing.com,Cameroon,136.187.1.100
13,Sean,Watkins,swatkinsc@paginegialle.it,Czech Republic,66.219.174.199
14,Deborah,Hart,dhartd@independent.co.uk,China,195.185.50.123
15,Ashley,Kelley,akelleye@discovery.com,Brazil,141.59.104.150
16,Ryan,Hudson,rhudsonf@sakura.ne.jp,Kazakhstan,103.5.162.114
17,Eugene,Smith,esmithg@about.com,France,60.46.241.224
18,Barbara,Reyes,breyesh@yellowbook.com,Indonesia,129.101.67.110
19,Helen,Freeman,hfreemani@gnu.org,Philippines,139.126.0.33
20,Margaret,Morales,mmoralesj@ox.ac.uk,Bulgaria,206.200.143.124
21,Linda,West,lwestk@eepurl.com,Philippines,10.225.94.253
22,Julia,Barnes,jbarnesl@twitpic.com,Azerbaijan,7.123.200.167
23,Peter,Sims,psimsm@hud.gov,Costa Rica,129.43.124.167
24,Phyllis,Brooks,pbrooksn@sina.com.cn,Czech Republic,87.93.77.103
25,Willie,Mitchell,wmitchello@usa.gov,United States,198.255.113.9
26,Terry,Cruz,tcruzp@photobucket.com,Portugal,150.39.209.138
27,Sharon,Howard,showardq@arstechnica.com,Brazil,103.192.3.124
28,Gerald,Hamilton,ghamiltonr@omniture.com,France,46.99.196.31
29,Dorothy,Kelley,dkelleys@reverbnation.com,Russia,96.87.38.27
30,Roy,Sanders,rsanderst@geocities.com,Bolivia,10.193.119.204
31,James,Tucker,jtuckeru@unesco.org,China,154.254.37.83
32,Kevin,Vasquez,kvasquezv@constantcontact.com,China,214.249.137.86
33,Stephanie,Watkins,swatkinsw@phoca.cz,Vietnam,88.117.186.73
34,Donald,George,dgeorgex@xrea.com,Russia,134.77.66.210
35,Debra,Sims,dsimsy@mapquest.com,Sweden,74.238.120.16
36,Gloria,Armstrong,garmstrongz@irs.gov,Finland,213.249.227.96
37,Sharon,Robinson,srobinson10@go.com,Zambia,8.184.8.236
38,Frank,Wilson,fwilson11@fc2.com,Ukraine,160.252.242.21
39,Michael,Nelson,mnelson12@army.mil,Russia,13.89.110.129
40,Martha,Clark,mclark13@google.es,China,230.48.159.66
41,Timothy,Miller,tmiller14@quantcast.com,China,48.113.199.167
42,Lillian,Wright,lwright15@google.ru,China,81.181.109.163
43,Shirley,Gonzalez,sgonzalez16@homestead.com,Japan,128.40.238.174
44,Eugene,Torres,etorres17@infoseek.co.jp,China,190.216.180.53
45,Irene,Banks,ibanks18@miibeian.gov.cn,Bangladesh,16.115.58.47
46,Donna,Frazier,dfrazier19@bbb.org,Central African Republic,48.173.167.65
47,Frances,Ortiz,fortiz1a@oakley.com,Albania,12.219.10.253
48,Sarah,Dunn,sdunn1b@digg.com,China,198.14.0.175
49,Clarence,Berry,cberry1c@nytimes.com,Sweden,177.5.90.79
50,Brandon,Bennett,bbennett1d@adobe.com,Ukraine,211.28.100.0
51,Christina,Bowman,cbowman1e@washingtonpost.com,Philippines,74.141.202.124
52,Scott,Robertson,srobertson1f@senate.gov,Indonesia,214.234.47.252
53,Gary,Cole,gcole1g@istockphoto.com,Czech Republic,30.77.57.105
54,Tammy,Smith,tsmith1h@edublogs.org,Poland,188.63.233.1
55,Michael,Sanders,msanders1i@ehow.com,Indonesia,245.54.253.138
56,Martin,Lawrence,mlawrence1j@ox.ac.uk,Marshall Islands,211.85.106.183
57,Harold,West,hwest1k@ibm.com,Palestinian Territory,242.25.19.41
58,Jack,Little,jlittle1l@pen.io,Denmark,157.67.169.116
59,Michelle,Parker,mparker1m@livejournal.com,Thailand,31.46.37.243
60,Sean,Peters,speters1n@qq.com,Peru,91.133.120.104
61,Mary,Torres,mtorres1o@redcross.org,Russia,168.138.168.67
62,Kathleen,Taylor,ktaylor1p@mediafire.com,Belize,54.246.86.197
63,Brian,Harper,bharper1q@wired.com,Norway,31.153.219.1
64,Rebecca,Hanson,rhanson1r@drupal.org,Poland,142.73.0.231
65,Lawrence,Nguyen,lnguyen1s@earthlink.net,Poland,150.116.92.173
66,James,Hudson,jhudson1t@marketwatch.com,China,243.117.64.26
67,Jose,Garza,jgarza1u@paginegialle.it,Albania,179.161.197.235
68,Richard,Mendoza,rmendoza1v@sciencedirect.com,Portugal,59.52.184.38
69,Harry,Knight,hknight1w@toplist.cz,China,21.90.92.61
70,Julia,Weaver,jweaver1x@ted.com,China,3.204.79.25
71,Sara,Romero,sromero1y@google.cn,Colombia,123.155.167.39
72,Russell,Murray,rmurray1z@ucoz.com,Latvia,145.50.81.58
73,Sandra,Mccoy,smccoy20@wp.com,China,207.68.250.115
74,Edward,Wright,ewright21@omniture.com,China,219.162.41.192
75,Kenneth,Bell,kbell22@bing.com,South Korea,75.140.193.66
76,Clarence,Meyer,cmeyer23@sakura.ne.jp,Thailand,230.91.15.97
77,Justin,Walker,jwalker24@acquirethisname.com,China,172.106.216.184
78,Walter,Brown,wbrown25@cbslocal.com,South Korea,116.41.148.235
79,Wanda,Morgan,wmorgan26@youku.com,Afghanistan,184.250.64.172
80,Anne,Owens,aowens27@nymag.com,Russia,116.175.105.105
81,Julia,James,jjames28@themeforest.net,China,65.118.93.204
82,Phillip,Edwards,pedwards29@goo.gl,Somalia,245.113.51.209
83,Joan,Holmes,jholmes2a@weather.com,Nicaragua,64.137.244.115
84,Gloria,Warren,gwarren2b@miibeian.gov.cn,North Korea,59.110.229.192
85,Sharon,Flores,sflores2c@uol.com.br,France,77.95.126.91
86,Lisa,Hernandez,lhernandez2d@stumbleupon.com,Sweden,35.15.149.117
87,Jennifer,Gray,jgray2e@sina.com.cn,Indonesia,250.121.59.143
88,Eric,Moore,emoore2f@buzzfeed.com,Honduras,101.146.93.99
89,Michael,Moreno,mmoreno2g@irs.gov,Poland,123.126.120.249
90,Joshua,Frazier,jfrazier2h@edublogs.org,Argentina,152.227.72.110
91,David,Stewart,dstewart2i@youtube.com,Vanuatu,140.131.79.65
92,Paul,Burton,pburton2j@deviantart.com,China,233.68.34.153
93,Amanda,Richardson,arichardson2k@hexun.com,Russia,52.87.61.252
94,Gloria,Alexander,galexander2l@purevolume.com,China,123.180.199.192
95,Lawrence,Simpson,lsimpson2m@fotki.com,China,187.44.206.249
96,Patrick,Chapman,pchapman2n@skype.com,Mexico,101.253.12.193
97,Christina,Ferguson,cferguson2o@blinklist.com,Poland,221.246.56.239
98,Andrea,Nguyen,anguyen2p@about.me,Philippines,189.226.214.45
99,Joan,Gomez,jgomez2q@businesswire.com,Russia,68.112.212.177
100,William,Coleman,wcoleman2r@wsj.com,South Korea,57.84.12.98
101,Mildred,James,mjames2s@jugem.jp,Thailand,52.156.232.123
102,George,Coleman,gcoleman2t@adobe.com,Japan,99.206.232.233
103,Donna,Bailey,dbailey2u@newsvine.com,Indonesia,62.190.6.57
104,Frances,Myers,fmyers2v@hc360.com,Russia,47.2.246.1
105,Deborah,Webb,dwebb2w@bbc.co.uk,Russia,141.80.196.81
106,Jerry,Mason,jmason2x@seattletimes.com,Poland,151.179.159.39
107,Mary,Moore,mmoore2y@wired.com,China,96.168.138.208
108,Ann,Mccoy,amccoy2z@merriam-webster.com,Nicaragua,248.4.29.189
109,Shirley,Olson,solson30@wsj.com,Philippines,40.42.199.81
110,Lawrence,Myers,lmyers31@toplist.cz,Indonesia,179.86.20.47
111,Bonnie,Meyer,bmeyer32@addthis.com,Portugal,15.55.72.10
112,Timothy,Franklin,tfranklin33@pcworld.com,France,209.47.168.114
113,Ernest,Green,egreen34@is.gd,Tanzania,92.247.245.16
114,Melissa,Moore,mmoore35@qq.com,Afghanistan,11.90.209.79
115,Peter,Rose,prose36@acquirethisname.com,Peru,243.249.255.174
116,Bonnie,Ramirez,bramirez37@mayoclinic.com,Poland,182.142.177.149
117,Wayne,Olson,wolson38@yale.edu,Papua New Guinea,189.140.217.43
118,Eric,Thompson,ethompson39@rambler.ru,United States,147.156.161.69
119,Michelle,Shaw,mshaw3a@time.com,Indonesia,58.50.28.121
120,Roy,Hansen,rhansen3b@mozilla.com,Indonesia,7.205.78.91
121,Catherine,Green,cgreen3c@dmoz.org,Russia,219.94.166.96
122,Frank,Brooks,fbrooks3d@walmart.com,Uganda,61.118.216.224
123,Lisa,Austin,laustin3e@businessweek.com,Indonesia,14.13.136.87
124,Steve,Bell,sbell3f@mysql.com,Nigeria,111.63.117.115
125,Chris,Elliott,celliott3g@home.pl,Israel,210.67.167.0
126,Lisa,Warren,lwarren3h@theguardian.com,Vietnam,180.150.188.242
127,Terry,Romero,tromero3i@surveymonkey.com,Czech Republic,87.88.36.187
128,Jack,Howard,jhoward3j@github.com,Indonesia,254.82.190.158
129,Norma,Moreno,nmoreno3k@cyberchimps.com,Greece,255.200.204.182
130,Donald,Stephens,dstephens3l@accuweather.com,Portugal,50.195.217.25
131,Elizabeth,Williamson,ewilliamson3m@fc2.com,China,142.1.196.98
132,Christopher,Nichols,cnichols3n@cloudflare.com,Albania,19.52.29.84
133,Keith,Wallace,kwallace3o@pagesperso-orange.fr,Indonesia,56.48.105.215
134,Ashley,Duncan,aduncan3p@newsvine.com,Czech Republic,215.44.41.113
135,Eric,West,ewest3q@cpanel.net,France,56.35.133.180
136,Paul,Harper,pharper3r@hostgator.com,China,37.56.126.151
137,Andrew,Gutierrez,agutierrez3s@blogs.com,Russia,81.185.58.153
138,Cynthia,Marshall,cmarshall3t@angelfire.com,Russia,191.127.124.84
139,Joshua,Hunter,jhunter3u@marketwatch.com,Brazil,176.178.38.186
140,Ronald,Bryant,rbryant3v@abc.net.au,Honduras,58.198.106.58
141,Kathy,Daniels,kdaniels3w@dion.ne.jp,China,216.221.177.139
142,Daniel,Matthews,dmatthews3x@nih.gov,Colombia,60.31.181.4
143,William,Brown,wbrown3y@indiegogo.com,China,223.211.248.120
144,Alice,Hamilton,ahamilton3z@marketwatch.com,Ireland,25.236.46.149
145,Teresa,Gomez,tgomez40@quantcast.com,Canada,154.42.99.133
146,Irene,Taylor,itaylor41@privacy.gov.au,Bulgaria,213.121.180.200
147,Mark,Schmidt,mschmidt42@umn.edu,China,151.188.56.186
148,Andrew,Wheeler,awheeler43@go.com,France,250.115.138.101
149,Kenneth,Montgomery,kmontgomery44@blogger.com,Indonesia,221.139.236.128
150,Diana,Hall,dhall45@twitpic.com,China,6.54.161.94
151,Kenneth,Rice,krice46@flavors.me,El Salvador,103.2.121.31
152,Maria,Graham,mgraham47@cyberchimps.com,Uruguay,152.92.211.16
153,Brian,Sanders,bsanders48@cornell.edu,China,3.45.12.116
154,Melissa,Cox,mcox49@jalbum.net,China,114.228.7.139
155,Shawn,Daniels,sdaniels4a@macromedia.com,Poland,90.1.94.147
156,Timothy,Coleman,tcoleman4b@alexa.com,China,28.95.99.223
157,Rachel,Reid,rreid4c@uiuc.edu,China,64.234.133.83
158,Barbara,Gilbert,bgilbert4d@slate.com,Mexico,140.125.16.84
159,Robin,Armstrong,rarmstrong4e@vinaora.com,Mexico,221.26.62.164
160,Katherine,Perez,kperez4f@huffingtonpost.com,Indonesia,139.218.15.64
161,Barbara,Black,bblack4g@nasa.gov,Philippines,161.240.36.141
162,Tammy,Lee,tlee4h@sitemeter.com,China,81.227.81.112
163,Joshua,Hicks,jhicks4i@census.gov,China,130.129.212.197
164,Henry,Chapman,hchapman4j@thetimes.co.uk,Poland,36.191.185.249
165,Janice,Foster,jfoster4k@mysql.com,Peru,118.20.17.153
166,Debra,Gardner,dgardner4l@alexa.com,Iran,239.166.5.75
167,Scott,Owens,sowens4m@wisc.edu,French Polynesia,125.128.181.28
168,Anne,Greene,agreene4n@comsenz.com,Thailand,217.107.236.96
169,Norma,Johnston,njohnston4o@columbia.edu,Indonesia,39.217.97.211
170,Barbara,Wood,bwood4p@fastcompany.com,Poland,56.127.244.37
171,Frances,Dunn,fdunn4q@unicef.org,Uganda,118.84.21.229
172,Patrick,Howell,phowell4r@biglobe.ne.jp,Czech Republic,112.85.251.11
173,Albert,Shaw,ashaw4s@telegraph.co.uk,China,22.219.225.49
174,Howard,Fields,hfields4t@nbcnews.com,Russia,156.223.94.222
175,Julie,Howell,jhowell4u@cnbc.com,Indonesia,30.148.49.212
176,Gary,Cunningham,gcunningham4v@chronoengine.com,Russia,166.102.238.45
177,Joshua,Foster,jfoster4w@woothemes.com,Uruguay,123.186.28.192
178,Cheryl,Matthews,cmatthews4x@google.ru,Uruguay,241.9.81.87
179,Jonathan,Williamson,jwilliamson4y@ca.gov,Syria,25.31.38.191
180,Richard,Peters,rpeters4z@51.la,Brazil,90.111.62.193
181,Anne,Perez,aperez50@springer.com,Guatemala,47.78.184.187
182,Judy,Little,jlittle51@arstechnica.com,Nigeria,181.81.25.123
183,Linda,Owens,lowens52@ucsd.edu,Poland,163.64.154.239
184,Beverly,Turner,bturner53@ebay.co.uk,Czech Republic,64.130.213.146
185,Nicole,Jones,njones54@google.com.br,Colombia,125.197.65.84
186,Alan,Banks,abanks55@51.la,Poland,118.224.158.85
187,Jimmy,Price,jprice56@ox.ac.uk,Mexico,237.150.250.236
188,Mary,Harris,mharris57@blogs.com,Thailand,73.175.95.202
189,Elizabeth,Sanchez,esanchez58@merriam-webster.com,Sweden,141.48.17.148
190,Robert,Moreno,rmoreno59@github.com,Poland,131.61.80.16
191,Louis,Berry,lberry5a@pcworld.com,Hungary,107.242.250.89
192,Emily,Hansen,ehansen5b@icq.com,Russia,125.121.217.173
193,Anthony,Tucker,atucker5c@spotify.com,Indonesia,32.167.146.164
194,Ruby,Reed,rreed5d@1und1.de,Indonesia,19.56.10.181
195,Bruce,Morgan,bmorgan5e@dedecms.com,Philippines,177.120.52.11
196,Howard,Moore,hmoore5f@digg.com,Czech Republic,35.253.166.81
197,Julia,Collins,jcollins5g@uol.com.br,United States,168.179.250.189
198,Paula,Thomas,pthomas5h@printfriendly.com,Bangladesh,68.65.50.104
199,Randy,Owens,rowens5i@unesco.org,Brazil,62.101.125.36
200,Steven,Montgomery,smontgomery5j@yelp.com,Czech Republic,58.126.117.246
201,Patricia,Stevens,pstevens5k@google.co.jp,Russia,51.100.98.97
202,Gerald,Burns,gburns5l@gmpg.org,Indonesia,35.58.195.39
203,Keith,Campbell,kcampbell5m@lycos.com,Indonesia,63.121.154.48
204,Justin,Banks,jbanks5n@sogou.com,Russia,47.186.162.171
205,Joyce,Mitchell,jmitchell5o@psu.edu,China,88.254.26.0
206,Brian,Price,bprice5p@miitbeian.gov.cn,Indonesia,212.191.111.105
207,Anne,Harper,aharper5q@360.cn,Tanzania,208.123.170.101
208,Carlos,Burns,cburns5r@devhub.com,Japan,161.204.244.218
209,Robert,Dixon,rdixon5s@mozilla.org,China,157.180.55.208
210,Dennis,Reed,dreed5t@yolasite.com,Portugal,215.233.145.2
211,Denise,Simpson,dsimpson5u@businessweek.com,Portugal,248.169.121.130
212,Ronald,Green,rgreen5v@nature.com,Russia,41.224.20.146
213,Jeremy,James,jjames5w@geocities.jp,China,19.198.190.123
214,Heather,Murray,hmurray5x@princeton.edu,Indonesia,100.102.227.106
215,Marilyn,Morrison,mmorrison5y@nps.gov,China,128.178.80.148
216,Richard,Olson,rolson5z@theglobeandmail.com,Portugal,178.203.101.76
217,Kelly,Austin,kaustin60@nationalgeographic.com,Paraguay,53.73.225.36
218,Paula,Morrison,pmorrison61@scribd.com,Philippines,228.109.60.148
219,Gary,Gonzalez,ggonzalez62@google.com.br,Comoros,251.198.137.103
220,Joan,James,jjames63@nps.gov,China,160.158.169.108
221,Jeremy,Spencer,jspencer64@wiley.com,Russia,168.227.206.132
222,Carolyn,Martin,cmartin65@patch.com,Greece,146.107.115.15
223,Craig,Allen,callen66@ca.gov,Chile,205.33.88.32
224,Diana,Schmidt,dschmidt67@ezinearticles.com,Russia,167.205.252.47
225,Ruth,Romero,rromero68@squidoo.com,Tanzania,225.94.193.250
226,Steve,Elliott,selliott69@privacy.gov.au,Israel,41.111.149.109
227,Margaret,Hunter,mhunter6a@sakura.ne.jp,Guatemala,148.95.153.60
228,Diane,Garrett,dgarrett6b@nature.com,Canada,12.179.44.116
229,Angela,Fernandez,afernandez6c@surveymonkey.com,Portugal,73.105.192.121
230,Victor,Mendoza,vmendoza6d@cnet.com,Thailand,187.23.155.100
231,Willie,Moreno,wmoreno6e@fastcompany.com,Philippines,7.54.5.208
232,Donald,Anderson,danderson6f@google.cn,Brazil,187.95.66.194
233,Donna,Hansen,dhansen6g@upenn.edu,China,122.92.68.164
234,Kimberly,Adams,kadams6h@zimbio.com,Argentina,207.163.111.251
235,Ann,Romero,aromero6i@webmd.com,Spain,1.44.244.173
236,Keith,Jacobs,kjacobs6j@wix.com,Canada,109.166.228.74
237,Samuel,Ryan,sryan6k@google.com.hk,Colombia,6.119.183.125
238,Annie,Edwards,aedwards6l@smh.com.au,Indonesia,29.222.52.137
239,Catherine,Davis,cdavis6m@nytimes.com,China,44.130.115.48
240,Ernest,Nichols,enichols6n@chicagotribune.com,Brazil,35.224.34.213
241,Steve,Jones,sjones6o@deviantart.com,Israel,11.203.121.109
242,Bonnie,Greene,bgreene6p@scientificamerican.com,Israel,74.206.147.146
243,Raymond,Palmer,rpalmer6q@people.com.cn,Poland,159.137.115.186
244,Amanda,Campbell,acampbell6r@posterous.com,China,218.196.127.226
245,Debra,Olson,dolson6s@technorati.com,Colombia,59.203.209.148
246,Edward,Bryant,ebryant6t@reference.com,Ukraine,174.243.176.129
247,Patrick,Lane,plane6u@unblog.fr,Philippines,174.2.180.97
248,Howard,Parker,hparker6v@drupal.org,China,143.112.147.14
249,Deborah,Banks,dbanks6w@cnet.com,Ukraine,79.73.254.174
250,Mark,Fox,mfox6x@ezinearticles.com,Bosnia and Herzegovina,229.207.215.75
251,Keith,Mitchell,kmitchell6y@nasa.gov,Philippines,46.15.154.63
252,Sean,Simmons,ssimmons6z@booking.com,Indonesia,181.142.125.13
253,Adam,Reyes,areyes70@ow.ly,Sweden,62.219.54.254
254,Pamela,Mitchell,pmitchell71@usda.gov,Malaysia,30.87.161.193
255,Ralph,Andrews,randrews72@exblog.jp,Ukraine,182.107.115.123
256,Raymond,Cole,rcole73@nifty.com,Poland,40.252.179.194
257,Lisa,Tucker,ltucker74@privacy.gov.au,South Africa,96.38.29.32
258,Amanda,Barnes,abarnes75@auda.org.au,Philippines,206.81.21.157
259,Christopher,Johnston,cjohnston76@cloudflare.com,Belarus,241.233.237.129
260,Brian,Hill,bhill77@hibu.com,China,141.52.112.82
261,Annie,Peterson,apeterson78@macromedia.com,Indonesia,89.94.87.64
262,George,Olson,golson79@chron.com,China,227.212.102.152
263,Alan,Griffin,agriffin7a@columbia.edu,Azerbaijan,31.81.163.185
264,Craig,Garcia,cgarcia7b@storify.com,Russia,99.220.174.65
265,Amanda,Ray,aray7c@myspace.com,Iran,21.92.225.236
266,Martin,Garrett,mgarrett7d@infoseek.co.jp,Armenia,81.0.59.132
267,Clarence,Howell,chowell7e@unc.edu,Poland,126.240.225.17
268,Janet,Bradley,jbradley7f@ehow.com,Indonesia,217.106.22.128
269,Heather,Reed,hreed7g@liveinternet.ru,Colombia,211.54.227.98
270,Todd,Riley,triley7h@yellowbook.com,Indonesia,252.200.113.225
271,Clarence,Ferguson,cferguson7i@multiply.com,Pakistan,11.0.170.91
272,Terry,Scott,tscott7j@constantcontact.com,Yemen,208.161.78.6
273,Phyllis,Peterson,ppeterson7k@simplemachines.org,Indonesia,184.240.213.218
274,Rose,Hughes,rhughes7l@multiply.com,China,161.140.0.89
275,Walter,Allen,wallen7m@theglobeandmail.com,Brazil,68.138.101.232
276,Jason,Ramos,jramos7n@e-recht24.de,Russia,5.4.130.241
277,Richard,Cunningham,rcunningham7o@devhub.com,China,160.119.235.96
278,Shawn,Thomas,sthomas7p@ezinearticles.com,Indonesia,211.47.8.150
279,Alice,Lawson,alawson7q@telegraph.co.uk,Philippines,2.167.87.176
280,Johnny,Cruz,jcruz7r@blog.com,China,88.166.140.106
281,Rebecca,Greene,rgreene7s@ftc.gov,South Korea,211.36.97.207
282,Debra,Fuller,dfuller7t@livejournal.com,United States,225.229.159.146
283,Terry,Hudson,thudson7u@un.org,Poland,159.24.110.148
284,Alice,Washington,awashington7v@dot.gov,China,240.103.7.174
285,Earl,Gilbert,egilbert7w@vistaprint.com,Ukraine,241.225.172.72
286,Sharon,Fox,sfox7x@washingtonpost.com,Russia,204.211.141.208
287,Denise,Wright,dwright7y@sohu.com,Bulgaria,102.170.186.6
288,Tina,Simpson,tsimpson7z@usgs.gov,Sweden,104.23.54.143
289,Jane,Porter,jporter80@whitehouse.gov,Uzbekistan,26.181.171.15
290,Brenda,Bradley,bbradley81@umich.edu,Czech Republic,78.141.136.42
291,Theresa,Sanchez,tsanchez82@ucla.edu,France,145.172.94.149
292,Julie,Williams,jwilliams83@ucla.edu,Indonesia,184.188.211.104
293,Jeremy,Palmer,jpalmer84@miibeian.gov.cn,Indonesia,193.205.19.14
294,Louis,Welch,lwelch85@theatlantic.com,Poland,227.38.78.43
295,Julia,Sanders,jsanders86@jimdo.com,Serbia,69.104.11.162
296,Jane,Hanson,jhanson87@nationalgeographic.com,Poland,245.115.212.235
297,Richard,Welch,rwelch88@google.it,Tanzania,202.251.185.98
298,Dorothy,Evans,devans89@sourceforge.net,Sudan,150.249.224.168
299,Ruby,Carroll,rcarroll8a@digg.com,Nigeria,199.160.125.224
300,Aaron,Garza,agarza8b@eventbrite.com,China,248.26.203.31
301,Beverly,Bailey,bbailey8c@trellian.com,Iran,4.240.61.184
302,Jennifer,Ford,jford8d@vkontakte.ru,China,214.111.108.54
303,Pamela,Palmer,ppalmer8e@google.ru,China,45.187.141.249
304,Adam,West,awest8f@patch.com,Poland,88.251.128.34
305,Brenda,Ray,bray8g@usnews.com,Brazil,62.162.131.218
306,Ryan,Boyd,rboyd8h@bloomberg.com,China,167.16.251.239
307,Anthony,Campbell,acampbell8i@mapquest.com,Albania,17.127.86.162
308,Joyce,Shaw,jshaw8j@unblog.fr,Japan,26.117.82.144
309,Timothy,Coleman,tcoleman8k@ucla.edu,Peru,139.3.132.157
310,Wanda,Banks,wbanks8l@twitter.com,Brazil,102.40.202.123
311,Shirley,Hughes,shughes8m@tiny.cc,Philippines,179.18.110.14
312,Paul,Ferguson,pferguson8n@goodreads.com,Ukraine,111.201.24.215
313,Lois,Meyer,lmeyer8o@t.co,Russia,81.253.226.176
314,Benjamin,Parker,bparker8p@de.vu,Ghana,30.90.48.186
315,Barbara,Howell,bhowell8q@adobe.com,China,219.251.40.130
316,Matthew,Jenkins,mjenkins8r@examiner.com,Ukraine,83.29.179.12
317,Amanda,Bishop,abishop8s@nydailynews.com,Russia,58.75.10.52
318,Thomas,Price,tprice8t@dropbox.com,Russia,61.145.56.120
319,Janice,Rice,jrice8u@ezinearticles.com,China,153.42.48.202
320,Alice,Morris,amorris8v@drupal.org,China,32.183.142.86
321,Kenneth,Jackson,kjackson8w@de.vu,Syria,93.128.20.205
322,Wayne,Martinez,wmartinez8x@ted.com,Ukraine,109.216.203.119
323,Gerald,Arnold,garnold8y@sitemeter.com,Indonesia,195.248.117.169
324,Brian,Moore,bmoore8z@nasa.gov,El Salvador,35.182.233.51
325,Marilyn,Ray,mray90@over-blog.com,Syria,186.45.129.140
326,Jimmy,Reid,jreid91@hubpages.com,Indonesia,195.125.182.108
327,Diana,Bowman,dbowman92@sina.com.cn,Canada,252.161.45.66
328,Joan,Reid,jreid93@gmpg.org,Argentina,12.36.208.91
329,Rachel,Kim,rkim94@twitter.com,Brazil,133.35.203.196
330,Sean,Mccoy,smccoy95@php.net,Sweden,147.42.122.86
331,Janice,Jackson,jjackson96@boston.com,Cyprus,96.232.28.31
332,Rebecca,Ryan,rryan97@hugedomains.com,Poland,51.237.238.32
333,Phyllis,Richards,prichards98@nba.com,Mexico,202.47.148.146
334,Ryan,Roberts,rroberts99@yellowpages.com,France,8.71.197.42
335,Ronald,Jackson,rjackson9a@spiegel.de,France,149.176.158.119
336,Eugene,Dean,edean9b@skyrock.com,France,14.67.210.224
337,Billy,Phillips,bphillips9c@bigcartel.com,Indonesia,133.189.11.35
338,Scott,Sims,ssims9d@cpanel.net,Venezuela,169.42.147.20
339,Robert,Jones,rjones9e@nhs.uk,Kosovo,216.136.197.210
340,Jack,Kim,jkim9f@paginegialle.it,Russia,180.171.187.119
341,Gloria,Howard,ghoward9g@mac.com,Guatemala,246.39.206.69
342,Laura,Robertson,lrobertson9h@mashable.com,Mongolia,98.146.197.163
343,Margaret,Sanders,msanders9i@bloomberg.com,Italy,232.102.156.229
344,Sean,Stevens,sstevens9j@loc.gov,Honduras,246.248.115.58
345,Donald,Welch,dwelch9k@networksolutions.com,China,119.9.190.126
346,Alice,Chapman,achapman9l@barnesandnoble.com,Mexico,68.61.64.23
347,Jessica,Dean,jdean9m@amazon.com,Ukraine,118.173.132.208
348,Billy,Bennett,bbennett9n@usda.gov,Greece,192.24.12.120
349,Linda,Webb,lwebb9o@qq.com,Indonesia,220.193.132.42
350,Douglas,Jordan,djordan9p@sourceforge.net,Vietnam,101.24.62.138
351,Andrea,Reyes,areyes9q@stanford.edu,Dominica,193.38.164.74
352,Heather,Peters,hpeters9r@webeden.co.uk,Belarus,175.112.120.50
353,Richard,Hanson,rhanson9s@so-net.ne.jp,Philippines,255.82.231.16
354,Harold,Sullivan,hsullivan9t@ted.com,Serbia,9.125.117.23
355,Adam,Tucker,atucker9u@fc2.com,Russia,73.6.93.146
356,Sandra,Mccoy,smccoy9v@printfriendly.com,Czech Republic,102.243.172.214
357,Marie,Romero,mromero9w@ft.com,Indonesia,2.161.161.148
358,Raymond,Campbell,rcampbell9x@moonfruit.com,Kyrgyzstan,25.234.202.124
359,Brian,Olson,bolson9y@ow.ly,Sweden,199.99.87.5
360,Virginia,Butler,vbutler9z@ifeng.com,China,236.132.161.18
361,Earl,Stevens,estevensa0@istockphoto.com,Indonesia,67.202.29.218
362,Juan,Webb,jwebba1@prweb.com,Kuwait,111.210.170.178
363,Daniel,Holmes,dholmesa2@cbslocal.com,Russia,104.77.238.20
364,Betty,Davis,bdavisa3@last.fm,Colombia,14.198.12.237
365,Antonio,Henderson,ahendersona4@google.nl,China,83.219.226.219
366,Russell,Perkins,rperkinsa5@google.com.br,Canada,185.207.65.125
367,Julia,Franklin,jfranklina6@sun.com,Indonesia,155.88.56.15
368,Charles,Mills,cmillsa7@biglobe.ne.jp,Argentina,0.42.61.156
369,Teresa,Black,tblacka8@ihg.com,Japan,107.195.230.121
370,Brandon,Allen,ballena9@w3.org,China,188.75.183.2
371,Larry,Mason,lmasonaa@huffingtonpost.com,United States,136.195.187.146
372,Pamela,Franklin,pfranklinab@netscape.com,China,32.61.142.162
373,Eugene,Knight,eknightac@hibu.com,Cyprus,152.67.220.249
374,Ernest,Fox,efoxad@booking.com,Malaysia,138.180.26.2
375,Joe,Gomez,jgomezae@jimdo.com,France,250.31.59.109
376,Katherine,Chavez,kchavezaf@uol.com.br,France,151.186.123.166
377,Todd,Williams,twilliamsag@myspace.com,Indonesia,244.196.235.6
378,Julia,Dixon,jdixonah@weibo.com,Portugal,192.139.202.149
379,Norma,Walker,nwalkerai@newyorker.com,Indonesia,5.180.168.47
380,Jose,Welch,jwelchaj@drupal.org,Russia,225.84.216.2
381,Marie,Dean,mdeanak@phpbb.com,United States,129.21.104.213
382,Irene,Richards,irichardsal@bing.com,Zambia,203.6.110.159
383,Judy,Henry,jhenryam@jiathis.com,China,238.247.122.210
384,Ruth,Mccoy,rmccoyan@ehow.com,China,50.122.65.84
385,Daniel,Gibson,dgibsonao@timesonline.co.uk,Ukraine,192.225.67.124
386,Pamela,Brown,pbrownap@free.fr,France,77.115.65.37
387,Pamela,Bishop,pbishopaq@senate.gov,China,67.114.208.47
388,Gregory,Simmons,gsimmonsar@businesswire.com,Peru,109.239.2.239
389,Harold,Gray,hgrayas@cbslocal.com,Guatemala,135.93.44.69
390,Harry,Ray,hrayat@wp.com,Nigeria,243.23.65.97
391,Nicole,Watson,nwatsonau@wired.com,France,139.71.11.111
392,Kelly,Morgan,kmorganav@columbia.edu,United States,202.8.214.158
393,Daniel,Mason,dmasonaw@npr.org,China,93.206.228.166
394,Pamela,George,pgeorgeax@ycombinator.com,Japan,64.56.111.32
395,Laura,Garza,lgarzaay@hatena.ne.jp,Croatia,228.115.17.53
396,Catherine,Porter,cporteraz@parallels.com,China,122.63.46.80
397,Christina,Chapman,cchapmanb0@digg.com,Indonesia,212.177.120.173
398,Samuel,Harrison,sharrisonb1@japanpost.jp,China,180.173.143.18
399,Alice,Kelly,akellyb2@networksolutions.com,China,69.114.64.116
400,Terry,Harrison,tharrisonb3@fda.gov,China,67.222.212.245
401,Dennis,Hansen,dhansenb4@sitemeter.com,Indonesia,219.64.104.236
402,Janet,Weaver,jweaverb5@hhs.gov,Nigeria,148.195.37.13
403,Martin,Hicks,mhicksb6@bravesites.com,Mexico,169.184.72.126
404,Kathleen,Perry,kperryb7@youtube.com,Indonesia,224.46.195.1
405,Joan,Ortiz,jortizb8@lycos.com,Indonesia,120.55.95.165
406,Rose,Rose,rroseb9@fastcompany.com,Philippines,153.199.217.197
407,Henry,Butler,hbutlerba@home.pl,United States,29.47.13.83
408,Virginia,Bell,vbellbb@hud.gov,Czech Republic,185.207.169.52
409,Sara,Barnes,sbarnesbc@sciencedaily.com,Portugal,119.113.157.253
410,Jack,George,jgeorgebd@economist.com,Indonesia,136.129.225.239
411,Earl,Gibson,egibsonbe@nih.gov,Finland,211.211.200.82
412,Jane,Montgomery,jmontgomerybf@fotki.com,Vietnam,84.50.46.214
413,Martin,Gutierrez,mgutierrezbg@sourceforge.net,China,100.229.197.113
414,Norma,Dixon,ndixonbh@columbia.edu,Palau,115.150.163.255
415,Betty,Elliott,belliottbi@nationalgeographic.com,Indonesia,143.174.61.14
416,George,Morrison,gmorrisonbj@hexun.com,Czech Republic,52.122.55.1
417,Kenneth,Sanders,ksandersbk@example.com,China,181.186.33.115
418,Jonathan,Mills,jmillsbl@domainmarket.com,Venezuela,92.33.37.217
419,Martha,Welch,mwelchbm@bloglovin.com,Portugal,127.72.99.49
420,Michael,Russell,mrussellbn@businessweek.com,China,69.99.157.101
421,Ronald,Turner,rturnerbo@state.tx.us,Japan,251.78.40.149
422,Billy,Martin,bmartinbp@prweb.com,Bosnia and Herzegovina,247.59.4.252
423,Rebecca,Green,rgreenbq@soup.io,United States,64.16.116.26
424,Christine,Smith,csmithbr@ftc.gov,Sweden,210.100.235.164
425,Wayne,Hudson,whudsonbs@who.int,Egypt,154.224.135.228
426,Brenda,Garza,bgarzabt@army.mil,Indonesia,238.148.9.51
427,Kathryn,Jackson,kjacksonbu@multiply.com,Russia,217.194.220.3
428,Joan,Russell,jrussellbv@gizmodo.com,Indonesia,238.35.54.99
429,Craig,Smith,csmithbw@google.com.au,Portugal,251.136.107.44
430,Carol,Mendoza,cmendozabx@hubpages.com,Jamaica,190.118.114.144
431,Donna,Freeman,dfreemanby@youtu.be,Russia,146.253.186.131
432,Barbara,Reyes,breyesbz@yandex.ru,Laos,118.161.115.99
433,Craig,Henderson,chendersonc0@soup.io,Czech Republic,233.144.207.4
434,Bobby,Andrews,bandrewsc1@123-reg.co.uk,Pakistan,239.107.142.53
435,Jean,Hamilton,jhamiltonc2@princeton.edu,Bosnia and Herzegovina,228.57.129.178
436,Kenneth,Price,kpricec3@icq.com,Indonesia,222.131.26.59
437,George,Foster,gfosterc4@topsy.com,Philippines,67.84.110.151
438,Shawn,King,skingc5@utexas.edu,Sweden,246.7.253.61
439,Phillip,Simmons,psimmonsc6@rakuten.co.jp,Brazil,179.207.35.74
440,Scott,Griffin,sgriffinc7@shinystat.com,Russia,126.49.134.192
441,Brandon,Hernandez,bhernandezc8@myspace.com,Cuba,79.80.112.191
442,Dennis,Nguyen,dnguyenc9@nyu.edu,Honduras,61.99.176.149
443,Sara,Dunn,sdunnca@forbes.com,Mongolia,51.176.133.106
444,Christine,Hunter,chuntercb@sitemeter.com,Indonesia,207.6.7.228
445,Carlos,Bailey,cbaileycc@unesco.org,Greece,4.203.56.112
446,Jacqueline,Boyd,jboydcd@amazon.co.jp,Indonesia,161.114.45.118
447,Eric,Long,elongce@prweb.com,Brazil,220.119.132.109
448,Maria,Matthews,mmatthewscf@booking.com,Portugal,199.52.183.67
449,Dorothy,Spencer,dspencercg@blogger.com,China,82.210.219.172
450,Harry,Larson,hlarsonch@wikipedia.org,Ukraine,59.242.104.180
451,Shirley,Reed,sreedci@umn.edu,Indonesia,120.117.44.163
452,Billy,Stewart,bstewartcj@illinois.edu,China,2.239.85.85
453,Charles,Campbell,ccampbellck@hostgator.com,Yemen,23.46.113.207
454,Arthur,Jacobs,ajacobscl@patch.com,China,174.142.250.201
455,Dorothy,Russell,drussellcm@paypal.com,Japan,174.41.138.163
456,Chris,Owens,cowenscn@nymag.com,Brazil,40.215.69.59
457,Ronald,Webb,rwebbco@list-manage.com,Brazil,191.92.167.166
458,Anthony,Roberts,arobertscp@360.cn,China,61.101.33.168
459,Harry,Lynch,hlynchcq@pbs.org,China,17.203.8.31
460,Lori,Green,lgreencr@marketwatch.com,Vietnam,234.212.215.217
461,Charles,Parker,cparkercs@stanford.edu,Brazil,86.118.24.65
462,Phillip,Stanley,pstanleyct@issuu.com,Philippines,36.53.242.83
463,Andrew,Cox,acoxcu@auda.org.au,Netherlands,169.114.4.236
464,Steven,Miller,smillercv@spiegel.de,China,229.116.227.242
465,Jerry,Robertson,jrobertsoncw@google.cn,Poland,52.69.36.200
466,Carol,Ramirez,cramirezcx@unblog.fr,Czech Republic,147.173.57.117
467,Paula,Martin,pmartincy@technorati.com,Czech Republic,164.190.226.190
468,Thomas,Gomez,tgomezcz@linkedin.com,Malaysia,29.118.20.87
469,Roger,Pierce,rpierced0@netlog.com,China,72.193.143.66
470,Eric,Sanchez,esanchezd1@usa.gov,Poland,118.238.207.225
471,Eric,Pierce,epierced2@free.fr,Ukraine,126.120.129.108
472,Janet,Watkins,jwatkinsd3@imgur.com,China,165.124.160.172
473,Roy,Lawson,rlawsond4@facebook.com,Russia,77.243.154.115
474,Shirley,Knight,sknightd5@archive.org,France,204.83.252.23
475,Jose,Owens,jowensd6@princeton.edu,French Polynesia,200.182.200.48
476,Joseph,Richards,jrichardsd7@msn.com,Russia,49.150.125.73
477,Diana,Oliver,doliverd8@exblog.jp,Russia,29.89.39.210
478,Julie,Jones,jjonesd9@webmd.com,France,123.220.109.148
479,Anne,Morgan,amorganda@mashable.com,Ukraine,26.124.157.144
480,Brenda,Stephens,bstephensdb@ovh.net,China,69.131.211.231
481,Jeremy,Willis,jwillisdc@microsoft.com,France,170.191.83.94
482,Alan,Stone,astonedd@wikipedia.org,China,179.4.80.104
483,Jennifer,Evans,jevansde@deviantart.com,Poland,45.96.213.70
484,Maria,Peterson,mpetersondf@skype.com,China,174.221.116.207
485,Judy,Reed,jreeddg@zimbio.com,China,239.52.121.19
486,Kathryn,Marshall,kmarshalldh@facebook.com,Russia,233.148.82.14
487,Amanda,Cunningham,acunninghamdi@networksolutions.com,Colombia,98.178.253.200
488,Roger,Mccoy,rmccoydj@printfriendly.com,Brazil,4.44.33.158
489,Kevin,Peterson,kpetersondk@liveinternet.ru,China,84.95.251.100
490,Larry,Murray,lmurraydl@mlb.com,Indonesia,232.134.58.147
491,Frances,Torres,ftorresdm@aboutads.info,Indonesia,204.76.148.202
492,Patricia,Schmidt,pschmidtdn@spiegel.de,Portugal,40.89.168.96
493,Maria,Ruiz,mruizdo@marketwatch.com,Poland,231.163.66.126
494,Bonnie,Simpson,bsimpsondp@google.nl,Sweden,158.240.204.127
495,Annie,Wright,awrightdq@house.gov,Bosnia and Herzegovina,25.235.73.146
496,Edward,Hanson,ehansondr@sohu.com,Indonesia,83.71.40.78
497,Sean,Bell,sbellds@eventbrite.com,Indonesia,111.107.248.19
498,Amanda,Cruz,acruzdt@cbslocal.com,Portugal,115.182.42.157
499,Martin,West,mwestdu@chron.com,Indonesia,129.181.245.198
500,Julia,Watkins,jwatkinsdv@delicious.com,Afghanistan,82.169.118.220
501,Mildred,Coleman,mcolemandw@usatoday.com,Mongolia,8.136.143.255
502,Victor,Harper,vharperdx@is.gd,Philippines,228.223.241.198
503,Amanda,Richardson,arichardsondy@nhs.uk,Russia,241.97.244.148
504,Joshua,Perry,jperrydz@sbwire.com,Germany,129.82.150.61
505,Tina,Knight,tknighte0@go.com,Russia,207.233.81.36
506,Phyllis,Kelley,pkelleye1@mozilla.com,China,170.125.11.229
507,Ashley,Arnold,aarnolde2@last.fm,Colombia,182.207.18.92
508,Daniel,Freeman,dfreemane3@squidoo.com,Brazil,189.100.156.157
509,Donna,Gibson,dgibsone4@blogger.com,France,184.180.235.150
510,George,Martinez,gmartineze5@sourceforge.net,Portugal,216.33.67.254
511,Harry,Rose,hrosee6@com.com,Indonesia,170.203.218.227
512,Gregory,Bradley,gbradleye7@unblog.fr,Indonesia,212.47.195.110
513,Carl,Barnes,cbarnese8@bandcamp.com,United Kingdom,140.209.123.59
514,Christina,Gilbert,cgilberte9@behance.net,France,153.132.250.175
515,David,Clark,dclarkea@usgs.gov,Greece,110.2.226.31
516,Lois,Knight,lknighteb@sitemeter.com,Ecuador,210.221.202.40
517,Justin,Little,jlittleec@noaa.gov,Indonesia,150.242.36.38
518,Barbara,Jacobs,bjacobsed@hostgator.com,Portugal,226.220.177.59
519,Keith,Nichols,knicholsee@list-manage.com,Czech Republic,117.141.122.151
520,Gregory,Wheeler,gwheeleref@usatoday.com,China,139.142.156.61
521,Katherine,Washington,kwashingtoneg@facebook.com,Chile,215.177.254.216
522,Carlos,Owens,cowenseh@newsvine.com,Vietnam,86.103.27.70
523,Tina,Baker,tbakerei@youtube.com,Ethiopia,115.217.52.7
524,Stephanie,Ramirez,sramirezej@sohu.com,Kazakhstan,82.161.238.32
525,Thomas,Graham,tgrahamek@answers.com,Albania,198.171.100.171
526,Jennifer,Morales,jmoralesel@indiatimes.com,Russia,92.89.201.76
527,Melissa,Wells,mwellsem@senate.gov,Jamaica,114.116.93.254
528,Doris,Hunter,dhunteren@netlog.com,China,253.136.85.167
529,Frank,Baker,fbakereo@vkontakte.ru,China,123.16.64.56
530,James,Chapman,jchapmanep@plala.or.jp,France,48.160.217.103
531,Ruby,Brown,rbrowneq@theatlantic.com,Afghanistan,208.29.167.77
532,Debra,Moore,dmooreer@woothemes.com,Laos,77.100.153.103
533,Jose,James,jjameses@washingtonpost.com,Indonesia,216.10.186.111
534,Kevin,Allen,kallenet@admin.ch,Japan,130.168.220.47
535,Elizabeth,Taylor,etayloreu@yellowpages.com,Indonesia,86.224.62.211
536,Ernest,Hunt,ehuntev@twitter.com,China,12.251.108.203
537,Ruth,Campbell,rcampbellew@amazon.de,Kosovo,162.46.64.2
538,Sandra,Crawford,scrawfordex@businessweek.com,Indonesia,72.44.65.152
539,Patrick,Gardner,pgardnerey@wikispaces.com,Indonesia,237.198.124.152
540,Benjamin,Graham,bgrahamez@blinklist.com,China,136.219.30.136
541,Evelyn,Olson,eolsonf0@printfriendly.com,Poland,240.109.127.93
542,Daniel,Grant,dgrantf1@unc.edu,Spain,230.233.134.48
543,James,Bradley,jbradleyf2@nasa.gov,South Africa,136.63.41.253
544,Robert,Gordon,rgordonf3@networkadvertising.org,Thailand,155.36.105.197
545,Chris,Schmidt,cschmidtf4@unc.edu,Indonesia,146.201.222.179
546,Antonio,Peterson,apetersonf5@imgur.com,United States,233.255.195.167
547,Jean,Murphy,jmurphyf6@tripod.com,France,162.132.153.197
548,Virginia,Greene,vgreenef7@sun.com,Palestinian Territory,242.200.189.81
549,Terry,Warren,twarrenf8@freewebs.com,Guatemala,31.225.229.114
550,Gloria,Little,glittlef9@tamu.edu,China,95.53.32.72
551,Robin,Hawkins,rhawkinsfa@mail.ru,Russia,167.83.128.244
552,Jeffrey,Graham,jgrahamfb@ycombinator.com,Honduras,198.61.128.139
553,Sara,Rose,srosefc@123-reg.co.uk,Honduras,238.22.240.78
554,Evelyn,Fields,efieldsfd@barnesandnoble.com,Philippines,121.53.210.250
555,Nicole,Robertson,nrobertsonfe@apple.com,Brazil,194.14.240.238
556,Maria,Walker,mwalkerff@bravesites.com,Philippines,190.89.214.221
557,Teresa,Parker,tparkerfg@unblog.fr,Argentina,89.11.153.113
558,Philip,Elliott,pelliottfh@nifty.com,China,85.242.213.40
559,Evelyn,Ferguson,efergusonfi@gizmodo.com,China,12.141.213.89
560,Julie,Walker,jwalkerfj@youtu.be,United States,203.61.225.140
561,Bonnie,Porter,bporterfk@businesswire.com,China,243.77.7.145
562,Frank,Knight,fknightfl@house.gov,China,53.3.65.93
563,Anne,Rivera,ariverafm@webmd.com,Peru,43.170.134.5
564,Raymond,Fernandez,rfernandezfn@yolasite.com,Philippines,96.58.55.117
565,Marie,Bradley,mbradleyfo@amazon.co.jp,Indonesia,148.27.85.118
566,Anthony,Taylor,ataylorfp@hp.com,Indonesia,74.106.219.150
567,Julia,Alexander,jalexanderfq@mit.edu,Russia,179.171.151.141
568,Todd,Watkins,twatkinsfr@themeforest.net,China,152.181.68.194
569,Anna,Schmidt,aschmidtfs@berkeley.edu,Argentina,82.245.141.185
570,Harry,Holmes,hholmesft@ustream.tv,Mali,70.33.227.241
571,Earl,Roberts,erobertsfu@goo.ne.jp,Japan,122.251.34.231
572,Alice,Williamson,awilliamsonfv@1und1.de,China,146.228.218.246
573,Bonnie,Campbell,bcampbellfw@canalblog.com,Venezuela,75.52.243.195
574,Howard,Carroll,hcarrollfx@slideshare.net,Poland,246.131.245.102
575,Denise,Cruz,dcruzfy@utexas.edu,Peru,220.135.212.212
576,Pamela,Dunn,pdunnfz@wikimedia.org,Indonesia,215.38.155.108
577,Janet,Jenkins,jjenkinsg0@xinhuanet.com,Philippines,78.234.67.142
578,Janet,Thompson,jthompsong1@blinklist.com,Slovenia,213.2.205.125
579,Lawrence,Wood,lwoodg2@wikispaces.com,China,201.244.18.250
580,Carl,Marshall,cmarshallg3@businessinsider.com,Venezuela,187.131.177.201
581,Dorothy,Brown,dbrowng4@cocolog-nifty.com,China,88.43.23.234
582,Eugene,Fuller,efullerg5@wisc.edu,Peru,187.126.16.69
583,Alan,Montgomery,amontgomeryg6@reuters.com,Mexico,61.208.79.246
584,Jerry,Bishop,jbishopg7@state.gov,Sweden,152.155.74.202
585,Dennis,Campbell,dcampbellg8@paginegialle.it,Yemen,99.65.181.35
586,Douglas,Kelly,dkellyg9@ucoz.com,China,51.63.67.228
587,Juan,Hunter,jhunterga@wikia.com,China,86.80.142.255
588,Lori,Evans,levansgb@wsj.com,Japan,55.191.164.90
589,Martha,Ward,mwardgc@google.nl,Ethiopia,156.190.30.248
590,Daniel,Boyd,dboydgd@comsenz.com,France,83.22.48.178
591,George,Cox,gcoxge@java.com,Republic of the Congo,1.100.47.108
592,Cynthia,Watkins,cwatkinsgf@hhs.gov,Norway,141.244.231.223
593,Dorothy,Ruiz,druizgg@oracle.com,Iran,6.229.235.113
594,Kelly,Reid,kreidgh@google.pl,Morocco,29.92.215.130
595,Todd,Allen,tallengi@jigsy.com,Azerbaijan,245.165.19.73
596,Martin,Frazier,mfraziergj@w3.org,Kazakhstan,67.147.81.21
597,Thomas,Collins,tcollinsgk@miibeian.gov.cn,Russia,101.105.37.229
598,Julie,Henry,jhenrygl@forbes.com,Indonesia,56.56.19.23
599,Jennifer,Porter,jportergm@blogspot.com,Russia,157.37.179.89
600,Kathy,Stephens,kstephensgn@blog.com,Peru,104.154.100.214
601,Anne,Duncan,aduncango@rakuten.co.jp,Russia,29.65.72.76
602,Julie,Weaver,jweavergp@tumblr.com,Netherlands,97.203.23.78
603,Ronald,Watkins,rwatkinsgq@webnode.com,China,241.109.176.235
604,Todd,Jones,tjonesgr@weibo.com,Russia,196.137.127.145
605,Aaron,Perez,aperezgs@google.com.au,Paraguay,159.85.101.196
606,Sandra,Wilson,swilsongt@sitemeter.com,Portugal,80.4.64.245
607,Brandon,Gardner,bgardnergu@psu.edu,Ukraine,44.66.129.225
608,Ryan,Andrews,randrewsgv@reuters.com,Indonesia,218.169.76.154
609,Chris,Warren,cwarrengw@wix.com,Poland,61.217.9.227
610,Steve,Martinez,smartinezgx@army.mil,China,208.49.66.91
611,Julia,Riley,jrileygy@hostgator.com,China,96.55.188.158
612,Benjamin,Hughes,bhughesgz@sogou.com,Norway,167.73.125.10
613,Elizabeth,Collins,ecollinsh0@wordpress.com,Saudi Arabia,60.208.212.98
614,Albert,Fields,afieldsh1@discuz.net,Spain,178.9.122.111
615,Jason,Olson,jolsonh2@irs.gov,Argentina,159.177.105.61
616,Lois,Crawford,lcrawfordh3@harvard.edu,Honduras,140.211.107.70
617,Paul,Fernandez,pfernandezh4@drupal.org,Indonesia,37.209.145.208
618,Joseph,Howard,jhowardh5@hibu.com,China,176.191.123.251
619,Lois,Gutierrez,lgutierrezh6@freewebs.com,Indonesia,207.225.137.245
620,Thomas,Matthews,tmatthewsh7@cnet.com,Thailand,62.181.173.21
621,Louis,Gonzalez,lgonzalezh8@java.com,Poland,84.174.120.154
622,Nicholas,Ramirez,nramirezh9@upenn.edu,South Africa,91.84.200.101
623,Billy,Thomas,bthomasha@dropbox.com,Nepal,92.209.191.72
624,Julia,Martinez,jmartinezhb@shinystat.com,Kazakhstan,116.5.197.87
625,Raymond,Robertson,rrobertsonhc@huffingtonpost.com,Peru,167.250.69.128
626,Shawn,Lane,slanehd@reddit.com,Portugal,190.242.114.109
627,Martha,Elliott,melliotthe@mapy.cz,Argentina,70.131.243.153
628,Kevin,Hernandez,khernandezhf@mlb.com,Poland,150.173.129.94
629,Jane,Gonzales,jgonzaleshg@sfgate.com,Russia,195.139.103.76
630,Benjamin,Roberts,brobertshh@cmu.edu,China,214.61.19.28
631,Bonnie,Ryan,bryanhi@google.pl,Thailand,175.211.113.237
632,Marilyn,Woods,mwoodshj@netscape.com,China,215.242.183.142
633,Sharon,King,skinghk@google.co.uk,China,155.120.28.162
634,Terry,Payne,tpaynehl@jiathis.com,Russia,29.24.92.34
635,Steve,Bradley,sbradleyhm@netscape.com,Colombia,109.114.167.192
636,Amanda,Hill,ahillhn@rakuten.co.jp,Brazil,216.98.44.69
637,Jeremy,Frazier,jfrazierho@infoseek.co.jp,Luxembourg,98.149.132.171
638,Ashley,Stanley,astanleyhp@blogtalkradio.com,Argentina,16.36.68.162
639,Terry,Cooper,tcooperhq@123-reg.co.uk,Tanzania,56.132.26.192
640,Lillian,Kim,lkimhr@qq.com,Russia,241.119.157.25
641,Sara,Owens,sowenshs@stanford.edu,Cocos Islands,251.231.184.198
642,Lori,Morgan,lmorganht@cbc.ca,Philippines,148.139.140.251
643,Linda,George,lgeorgehu@hao123.com,Poland,180.9.25.41
644,Stephen,Watkins,swatkinshv@youku.com,Slovenia,185.184.142.181
645,Kathryn,Duncan,kduncanhw@twitter.com,Russia,68.41.114.195
646,Karen,Williamson,kwilliamsonhx@cdc.gov,Lithuania,106.6.29.18
647,Stephen,Bowman,sbowmanhy@surveymonkey.com,Indonesia,223.102.163.60
648,Annie,West,awesthz@yellowbook.com,Ukraine,247.231.10.111
649,Sara,Hall,shalli0@dmoz.org,Hong Kong,132.92.19.127
650,Deborah,Ferguson,dfergusoni1@wordpress.org,China,18.110.22.251
651,Jennifer,Reed,jreedi2@yellowpages.com,Uzbekistan,252.254.219.47
652,Billy,Sanders,bsandersi3@over-blog.com,Colombia,224.35.26.111
653,Johnny,Allen,jalleni4@google.de,China,231.254.209.187
654,Jeffrey,Lewis,jlewisi5@liveinternet.ru,Egypt,85.195.157.145
655,Roy,Rivera,rriverai6@statcounter.com,Brazil,38.16.10.161
656,Alice,Reyes,areyesi7@wisc.edu,Indonesia,12.17.91.72
657,Gregory,Wells,gwellsi8@weather.com,Isle of Man,169.15.127.159
658,Terry,Hudson,thudsoni9@ebay.com,Indonesia,0.115.45.56
659,Billy,Grant,bgrantia@infoseek.co.jp,Indonesia,167.202.185.240
660,Shawn,Williams,swilliamsib@google.cn,China,46.238.40.190
661,Phillip,Nguyen,pnguyenic@wired.com,Argentina,135.168.184.82
662,Jane,Sims,jsimsid@dropbox.com,Philippines,154.76.99.86
663,Irene,Wallace,iwallaceie@tinypic.com,Portugal,190.38.27.187
664,Susan,Weaver,sweaverif@newyorker.com,Colombia,222.90.142.191
665,Kimberly,Adams,kadamsig@weebly.com,Nigeria,50.252.210.32
666,Mildred,Robinson,mrobinsonih@webnode.com,New Zealand,241.2.84.135
667,Judith,Peterson,jpetersonii@google.de,Czech Republic,55.120.250.121
668,Matthew,Morgan,mmorganij@ustream.tv,Estonia,75.148.183.98
669,Mary,Garza,mgarzaik@networksolutions.com,Ukraine,203.95.11.3
670,Frances,Hamilton,fhamiltonil@washington.edu,Norway,178.109.177.237
671,Denise,Little,dlittleim@furl.net,Philippines,28.216.86.91
672,Peter,Hart,phartin@eepurl.com,Palestinian Territory,118.22.32.192
673,Arthur,Martinez,amartinezio@nationalgeographic.com,China,214.238.202.242
674,Joshua,Martinez,jmartinezip@weibo.com,Colombia,222.130.215.175
675,Judy,Stevens,jstevensiq@npr.org,China,40.212.43.135
676,Billy,Hanson,bhansonir@dailymail.co.uk,China,0.241.215.192
677,Evelyn,Garza,egarzais@va.gov,China,38.19.195.55
678,Howard,Stevens,hstevensit@telegraph.co.uk,Finland,89.2.62.42
679,Pamela,Edwards,pedwardsiu@diigo.com,Palestinian Territory,46.122.6.13
680,Theresa,Burns,tburnsiv@1688.com,China,234.173.41.1
681,Jeremy,Rice,jriceiw@51.la,Indonesia,73.4.159.106
682,Joyce,Woods,jwoodsix@shareasale.com,North Korea,255.221.205.254
683,Donna,Baker,dbakeriy@intel.com,China,109.30.93.190
684,Eric,Bowman,ebowmaniz@amazon.com,Peru,252.184.91.114
685,Alice,Long,alongj0@chicagotribune.com,Poland,113.9.211.248
686,Gloria,Berry,gberryj1@360.cn,China,236.76.110.178
687,Louis,Black,lblackj2@slate.com,Canada,128.68.234.208
688,John,Wheeler,jwheelerj3@typepad.com,Saudi Arabia,126.3.70.232
689,Harold,Nelson,hnelsonj4@timesonline.co.uk,Philippines,169.212.8.226
690,Willie,Martinez,wmartinezj5@symantec.com,Ecuador,162.145.251.74
691,Tina,Richards,trichardsj6@weebly.com,Austria,6.224.193.54
692,Gloria,Henderson,ghendersonj7@discuz.net,Russia,106.24.145.213
693,Joseph,Murray,jmurrayj8@zdnet.com,Morocco,206.144.11.74
694,Frank,Simpson,fsimpsonj9@wufoo.com,Mongolia,26.171.222.203
695,Emily,Palmer,epalmerja@ask.com,Czech Republic,160.35.234.141
696,Jane,Harper,jharperjb@imdb.com,Russia,100.108.207.74
697,Ronald,Nichols,rnicholsjc@skyrock.com,China,161.206.137.86
698,Scott,George,sgeorgejd@hatena.ne.jp,Spain,101.194.56.236
699,Jack,Hart,jhartje@slashdot.org,Yemen,46.209.135.102
700,Theresa,Smith,tsmithjf@nasa.gov,Syria,250.31.31.100
701,Marilyn,Stephens,mstephensjg@ebay.co.uk,Iran,83.153.12.177
702,Louis,Ruiz,lruizjh@statcounter.com,Canada,209.194.64.62
703,Samuel,Mason,smasonji@homestead.com,France,211.22.134.108
704,Antonio,Anderson,aandersonjj@ucoz.ru,China,249.30.61.215
705,Janice,Frazier,jfrazierjk@ucsd.edu,China,133.26.2.46
706,Donna,Campbell,dcampbelljl@drupal.org,Poland,21.202.34.185
707,Jane,Elliott,jelliottjm@vistaprint.com,Slovenia,38.5.69.128
708,Anna,Jenkins,ajenkinsjn@reddit.com,Latvia,118.237.115.218
709,Ralph,Williamson,rwilliamsonjo@ucoz.com,Palestinian Territory,180.228.157.232
710,Jeremy,Reid,jreidjp@discuz.net,United States,40.100.217.195
711,Karen,Clark,kclarkjq@mapy.cz,China,57.9.247.244
712,Carlos,Bell,cbelljr@studiopress.com,Brazil,135.88.155.46
713,Ruth,Russell,rrusselljs@craigslist.org,Mongolia,201.199.44.237
714,Patricia,Sanchez,psanchezjt@freewebs.com,France,242.146.224.29
715,Victor,Carter,vcarterju@dot.gov,Benin,42.92.85.226
716,Mary,Vasquez,mvasquezjv@whitehouse.gov,Kenya,110.36.189.253
717,Tina,Collins,tcollinsjw@spiegel.de,China,66.123.81.6
718,Wanda,Howell,whowelljx@rediff.com,China,1.99.47.223
719,Wanda,Dixon,wdixonjy@discuz.net,Argentina,254.27.138.134
720,Joyce,Fisher,jfisherjz@spotify.com,China,11.87.169.157
721,Jeffrey,Ryan,jryank0@privacy.gov.au,Croatia,76.51.228.250
722,Frank,Adams,fadamsk1@discovery.com,Poland,149.69.71.102
723,Norma,Little,nlittlek2@free.fr,Poland,36.152.40.202
724,Christopher,Berry,cberryk3@desdev.cn,Philippines,3.137.36.96
725,Annie,Vasquez,avasquezk4@surveymonkey.com,China,119.238.189.155
726,Donald,Sanders,dsandersk5@squarespace.com,Ethiopia,160.98.216.226
727,Christopher,Jones,cjonesk6@creativecommons.org,China,222.89.84.234
728,Nancy,Mccoy,nmccoyk7@hibu.com,France,5.185.41.221
729,Carl,Olson,colsonk8@nbcnews.com,Venezuela,22.217.243.4
730,Joshua,Fox,jfoxk9@123-reg.co.uk,Czech Republic,88.254.250.79
731,Melissa,Fox,mfoxka@huffingtonpost.com,Cuba,162.76.97.233
732,Jennifer,Nichols,jnicholskb@techcrunch.com,China,54.37.183.35
733,Melissa,Howard,mhowardkc@soundcloud.com,South Africa,239.116.159.73
734,Michael,Nguyen,mnguyenkd@loc.gov,Mongolia,129.219.247.44
735,Russell,Owens,rowenske@youku.com,Russia,55.65.176.249
736,Jennifer,Rice,jricekf@hud.gov,Brazil,204.3.142.0
737,Roy,Stephens,rstephenskg@shutterfly.com,France,52.30.63.160
738,Larry,Montgomery,lmontgomerykh@goodreads.com,Bangladesh,129.1.200.140
739,Kimberly,Kennedy,kkennedyki@netscape.com,China,141.140.26.38
740,Frances,Moore,fmoorekj@yahoo.co.jp,Slovenia,160.26.51.111
741,Alice,Morris,amorriskk@salon.com,Indonesia,224.242.124.237
742,Arthur,Rogers,arogerskl@pcworld.com,China,172.241.22.210
743,James,Perkins,jperkinskm@wired.com,Russia,56.9.104.170
744,Robert,Howell,rhowellkn@google.com,France,57.239.193.89
745,Helen,Cunningham,hcunninghamko@mozilla.org,Ukraine,53.159.144.195
746,Teresa,Young,tyoungkp@twitpic.com,Russia,93.195.81.56
747,Clarence,Gonzales,cgonzaleskq@imgur.com,Russia,177.250.111.111
748,Jacqueline,Knight,jknightkr@cyberchimps.com,China,54.119.203.11
749,Linda,Lane,llaneks@ezinearticles.com,Philippines,116.112.146.29
750,Joan,Garcia,jgarciakt@loc.gov,Colombia,46.157.11.99
751,Brandon,Rodriguez,brodriguezku@plala.or.jp,China,19.116.247.74
752,Beverly,Williams,bwilliamskv@csmonitor.com,Argentina,16.74.99.149
753,Diana,Gordon,dgordonkw@wikimedia.org,China,11.153.154.184
754,Louis,Thompson,lthompsonkx@boston.com,Indonesia,173.237.104.202
755,Joseph,Ferguson,jfergusonky@networksolutions.com,Philippines,96.170.181.230
756,Wanda,Reid,wreidkz@shinystat.com,Kazakhstan,7.163.75.149
757,Chris,Hawkins,chawkinsl0@smugmug.com,Nigeria,38.164.47.181
758,Robert,Brown,rbrownl1@npr.org,Sweden,252.31.231.152
759,Clarence,Griffin,cgriffinl2@plala.or.jp,Colombia,111.199.197.118
760,Jessica,Olson,jolsonl3@eepurl.com,Indonesia,251.28.248.176
761,Lisa,Sanders,lsandersl4@com.com,China,214.110.8.168
762,Wanda,Willis,wwillisl5@sciencedirect.com,Kuwait,127.158.228.199
763,Raymond,Kim,rkiml6@cdbaby.com,Indonesia,111.16.14.90
764,Joshua,Ruiz,jruizl7@shinystat.com,Mexico,141.71.214.115
765,Christopher,Montgomery,cmontgomeryl8@creativecommons.org,Brazil,112.164.175.28
766,Catherine,Welch,cwelchl9@accuweather.com,Sweden,79.62.150.22
767,Sandra,Johnson,sjohnsonla@woothemes.com,China,17.120.185.139
768,Jane,Vasquez,jvasquezlb@nbcnews.com,China,241.142.183.214
769,Carl,Brooks,cbrookslc@google.com.au,China,144.209.183.81
770,Janet,Kim,jkimld@printfriendly.com,Thailand,193.91.78.85
771,Angela,Howell,ahowellle@infoseek.co.jp,Indonesia,252.142.171.167
772,Nicole,Peters,npeterslf@google.com,Portugal,108.64.127.112
773,Brandon,Reynolds,breynoldslg@ustream.tv,Dominican Republic,214.24.27.148
774,Alan,Dunn,adunnlh@ucsd.edu,Portugal,105.102.246.175
775,Willie,Schmidt,wschmidtli@nyu.edu,Poland,216.164.48.137
776,Martin,Knight,mknightlj@ucsd.edu,Bangladesh,142.85.101.156
777,Justin,Lynch,jlynchlk@huffingtonpost.com,Ukraine,133.179.156.167
778,Lori,Shaw,lshawll@g.co,Greece,52.94.56.210
779,Scott,Owens,sowenslm@apache.org,China,96.180.78.32
780,Kevin,Frazier,kfrazierln@google.ca,Ukraine,162.46.29.32
781,Dennis,Gilbert,dgilbertlo@list-manage.com,Finland,40.221.181.99
782,Stephen,Flores,sfloreslp@ameblo.jp,Latvia,196.48.243.6
783,Mary,Hart,mhartlq@marriott.com,Russia,41.129.193.41
784,Amy,Jones,ajoneslr@canalblog.com,Brazil,5.51.132.54
785,Irene,Scott,iscottls@furl.net,Cuba,235.236.124.53
786,Juan,Nichols,jnicholslt@cnn.com,Montenegro,184.112.105.170
787,Lois,Wright,lwrightlu@upenn.edu,Sierra Leone,34.253.189.193
788,Pamela,Franklin,pfranklinlv@plala.or.jp,China,247.28.4.209
789,Todd,Larson,tlarsonlw@twitter.com,Czech Republic,10.183.195.215
790,Brian,Fisher,bfisherlx@skyrock.com,Greece,203.186.99.109
791,Patrick,Fuller,pfullerly@yolasite.com,Bolivia,134.243.173.103
792,Thomas,Wells,twellslz@wikimedia.org,Philippines,81.221.21.163
793,Timothy,Castillo,tcastillom0@sun.com,Argentina,159.20.127.67
794,William,Porter,wporterm1@wiley.com,Iran,162.147.190.245
795,Jack,Murray,jmurraym2@dell.com,Tanzania,194.99.146.53
796,Mildred,Reid,mreidm3@gnu.org,China,153.19.7.168
797,Frances,Fox,ffoxm4@usnews.com,France,33.229.217.175
798,Bruce,Hamilton,bhamiltonm5@blinklist.com,Canada,96.186.102.155
799,Susan,Howell,showellm6@hatena.ne.jp,Philippines,40.128.157.98
800,Thomas,Wright,twrightm7@ocn.ne.jp,Indonesia,99.158.36.168
801,Jerry,Evans,jevansm8@amazon.com,United States,180.186.249.129
802,Walter,Riley,wrileym9@cnet.com,Kenya,130.80.123.207
803,Joyce,Lawrence,jlawrencema@51.la,China,35.118.98.222
804,Richard,Ramos,rramosmb@sourceforge.net,China,250.226.173.95
805,Gregory,Bryant,gbryantmc@fda.gov,China,254.138.224.113
806,Theresa,Roberts,trobertsmd@youtu.be,China,151.244.65.25
807,Carolyn,Franklin,cfranklinme@twitpic.com,Philippines,5.71.188.223
808,Deborah,Andrews,dandrewsmf@weebly.com,Thailand,68.135.95.14
809,Catherine,Davis,cdavismg@senate.gov,Indonesia,135.35.184.58
810,Henry,Anderson,handersonmh@bigcartel.com,Sweden,118.82.197.223
811,Diana,Matthews,dmatthewsmi@youtu.be,Croatia,21.70.208.62
812,Brenda,Richardson,brichardsonmj@ft.com,Cambodia,211.9.126.34
813,Carl,Carroll,ccarrollmk@topsy.com,Colombia,97.162.220.221
814,Matthew,Mitchell,mmitchellml@ning.com,China,91.97.35.31
815,Eugene,Palmer,epalmermm@elpais.com,Vietnam,197.83.112.10
816,Bonnie,Bell,bbellmn@clickbank.net,Indonesia,224.165.112.197
817,Lawrence,Russell,lrussellmo@oakley.com,Ecuador,78.137.19.171
818,Emily,Carter,ecartermp@w3.org,Portugal,104.67.90.47
819,Phillip,Mcdonald,pmcdonaldmq@facebook.com,Chad,224.187.115.166
820,Bonnie,Hamilton,bhamiltonmr@state.gov,Netherlands,115.49.152.225
821,Benjamin,Welch,bwelchms@tmall.com,Philippines,147.116.62.175
822,Jennifer,Gordon,jgordonmt@altervista.org,Indonesia,128.219.61.124
823,Katherine,Price,kpricemu@toplist.cz,Indonesia,146.150.59.95
824,Janice,Arnold,jarnoldmv@go.com,China,153.98.128.198
825,Willie,Jenkins,wjenkinsmw@arstechnica.com,Ukraine,140.150.37.231
826,Jennifer,Washington,jwashingtonmx@indiegogo.com,Albania,117.19.24.56
827,Justin,Cooper,jcoopermy@walmart.com,Peru,135.53.15.192
828,Nancy,Payne,npaynemz@t-online.de,China,169.49.212.181
829,Ronald,Tucker,rtuckern0@oracle.com,Portugal,197.55.72.235
830,Ernest,Hudson,ehudsonn1@mapy.cz,Poland,95.148.32.123
831,Ryan,Lawson,rlawsonn2@sakura.ne.jp,Morocco,58.40.140.49
832,Shirley,Bowman,sbowmann3@sun.com,China,42.3.56.34
833,Nicole,Patterson,npattersonn4@tiny.cc,Georgia,180.113.80.132
834,Helen,Sanders,hsandersn5@opensource.org,Nigeria,205.129.33.124
835,Amy,Bishop,abishopn6@jalbum.net,China,119.197.11.163
836,Andrea,Ray,arayn7@github.io,Ecuador,1.188.245.101
837,Jose,Fisher,jfishern8@microsoft.com,China,120.51.197.121
838,Norma,Hunt,nhuntn9@e-recht24.de,Iran,206.108.81.150
839,Jean,Elliott,jelliottna@independent.co.uk,Ukraine,244.6.190.51
840,Jason,Carroll,jcarrollnb@alexa.com,Democratic Republic of the Congo,128.116.239.136
841,Antonio,Daniels,adanielsnc@altervista.org,Tunisia,155.73.247.33
842,Marie,Diaz,mdiaznd@oracle.com,China,77.5.61.26
843,Angela,Burns,aburnsne@blogspot.com,Sweden,56.21.59.119
844,Robert,Vasquez,rvasqueznf@howstuffworks.com,Thailand,3.145.237.74
845,Annie,Ross,arossng@ning.com,Egypt,66.159.14.17
846,Harry,Allen,hallennh@lycos.com,French Southern Territories,136.24.161.92
847,Ashley,Rodriguez,arodriguezni@hc360.com,China,84.209.213.109
848,Antonio,Castillo,acastillonj@sourceforge.net,Venezuela,194.220.127.147
849,Shawn,Butler,sbutlernk@livejournal.com,Thailand,210.32.74.25
850,Donald,Harris,dharrisnl@independent.co.uk,Georgia,250.196.27.6
851,Roger,Willis,rwillisnm@yolasite.com,Thailand,174.239.86.164
852,Jeffrey,Ross,jrossnn@liveinternet.ru,Russia,159.140.30.191
853,Tammy,Ortiz,tortizno@ucoz.com,Russia,108.114.250.53
854,Craig,Myers,cmyersnp@senate.gov,Philippines,143.54.57.30
855,Laura,Bowman,lbowmannq@intel.com,Ukraine,166.93.182.136
856,Thomas,Fields,tfieldsnr@harvard.edu,Philippines,37.82.192.1
857,Virginia,Perez,vperezns@europa.eu,United Kingdom,226.181.51.15
858,Andrew,Cunningham,acunninghamnt@tripod.com,Greece,170.171.113.163
859,Steve,Brown,sbrownnu@furl.net,Portugal,91.37.35.205
860,Samuel,Bowman,sbowmannv@apache.org,China,113.116.80.0
861,Brandon,Jones,bjonesnw@mayoclinic.com,China,34.226.224.66
862,Andrew,Thomas,athomasnx@imdb.com,Mauritius,250.184.115.93
863,Diana,Reed,dreedny@addtoany.com,Nigeria,71.191.17.12
864,Eugene,Nguyen,enguyennz@elpais.com,Poland,45.208.178.0
865,Ryan,Romero,rromeroo0@arstechnica.com,Lithuania,174.147.34.178
866,Patrick,White,pwhiteo1@ask.com,Brazil,6.17.153.36
867,Shirley,Allen,salleno2@marriott.com,Indonesia,117.165.71.163
868,Angela,Anderson,aandersono3@stumbleupon.com,Uruguay,95.237.33.79
869,Phyllis,Garcia,pgarciao4@google.nl,Indonesia,178.74.37.167
870,Sean,Simmons,ssimmonso5@ycombinator.com,United States,239.51.102.42
871,Jessica,Reyes,jreyeso6@studiopress.com,Indonesia,117.243.144.162
872,Roger,Jackson,rjacksono7@ebay.com,Poland,66.5.204.46
873,Ralph,Hart,rharto8@slideshare.net,Tanzania,167.73.38.131
874,Marie,Pierce,mpierceo9@spotify.com,Czech Republic,9.207.22.16
875,Alice,Brown,abrownoa@1und1.de,Kazakhstan,117.228.0.145
876,Roy,Hansen,rhansenob@xrea.com,Indonesia,202.121.117.60
877,Jesse,Alexander,jalexanderoc@examiner.com,United States,196.131.181.149
878,Howard,Armstrong,harmstrongod@wufoo.com,Indonesia,126.76.119.113
879,Steven,Castillo,scastillooe@gmpg.org,Nigeria,9.210.210.223
880,Jesse,Ross,jrossof@thetimes.co.uk,Brazil,139.78.170.189
881,Kenneth,Knight,kknightog@whitehouse.gov,Japan,157.251.3.87
882,Kevin,Robertson,krobertsonoh@unesco.org,China,197.252.254.103
883,Paul,Mitchell,pmitchelloi@mac.com,Malaysia,184.205.84.25
884,Arthur,Collins,acollinsoj@amazon.com,Thailand,150.103.13.0
885,Joshua,Larson,jlarsonok@canalblog.com,Guatemala,17.235.123.49
886,Heather,Bryant,hbryantol@clickbank.net,Indonesia,54.195.204.20
887,Adam,Hill,ahillom@ted.com,China,144.154.180.224
888,Phillip,Rogers,progerson@yale.edu,China,150.179.166.65
889,Frances,Franklin,ffranklinoo@businessweek.com,Madagascar,196.96.68.71
890,Brian,Richardson,brichardsonop@state.tx.us,Indonesia,53.81.158.86
891,Alice,Walker,awalkeroq@ca.gov,Luxembourg,219.146.81.127
892,Phillip,Reynolds,preynoldsor@house.gov,Dominican Republic,82.31.35.207
893,Judith,Black,jblackos@networkadvertising.org,Cyprus,120.139.221.36
894,Victor,Ellis,vellisot@un.org,Cuba,223.228.41.223
895,Norma,Cole,ncoleou@globo.com,Yemen,190.55.7.9
896,Debra,Parker,dparkerov@yale.edu,Nigeria,166.186.114.96
897,Marie,Allen,mallenow@wix.com,China,43.112.164.63
898,Helen,Vasquez,hvasquezox@unblog.fr,Israel,148.194.170.130
899,Carl,Myers,cmyersoy@biglobe.ne.jp,China,177.163.152.250
900,Arthur,Fields,afieldsoz@reuters.com,China,125.36.133.102
901,Sean,Chavez,schavezp0@mit.edu,China,236.242.101.109
902,Donald,Ortiz,dortizp1@boston.com,Sweden,136.1.44.114
903,Walter,Reid,wreidp2@noaa.gov,China,139.27.100.180
904,Diana,Rose,drosep3@facebook.com,Indonesia,6.216.60.153
905,Joseph,Williams,jwilliamsp4@amazon.co.uk,France,124.86.36.199
906,Harold,Wilson,hwilsonp5@ucoz.ru,Argentina,244.164.53.147
907,Benjamin,Reynolds,breynoldsp6@nyu.edu,Albania,53.136.217.51
908,Harold,Nichols,hnicholsp7@scribd.com,China,0.176.150.255
909,Jeremy,Jordan,jjordanp8@nba.com,Lithuania,48.122.198.128
910,Ruby,Fisher,rfisherp9@wordpress.com,Argentina,70.126.78.2
911,Steven,Willis,swillispa@macromedia.com,China,141.77.194.98
912,Julia,Wilson,jwilsonpb@nba.com,China,145.20.59.84
913,Johnny,Lewis,jlewispc@chronoengine.com,Yemen,6.215.51.32
914,Tina,Gonzalez,tgonzalezpd@eepurl.com,China,221.41.61.131
915,Billy,Frazier,bfrazierpe@google.fr,Indonesia,58.206.209.1
916,Nicholas,Fox,nfoxpf@webnode.com,Ukraine,153.1.47.55
917,Katherine,Lewis,klewispg@last.fm,Germany,147.158.82.246
918,Rebecca,Gilbert,rgilbertph@hostgator.com,Brazil,119.169.12.3
919,Norma,Owens,nowenspi@amazon.com,Thailand,124.111.255.250
920,Bruce,Scott,bscottpj@pinterest.com,Jordan,223.98.36.47
921,Dorothy,Cruz,dcruzpk@wikimedia.org,Indonesia,252.217.240.244
922,Dorothy,Turner,dturnerpl@msu.edu,Philippines,171.188.241.249
923,Bobby,Rodriguez,brodriguezpm@purevolume.com,Mali,95.116.49.204
924,Sean,Romero,sromeropn@amazon.com,China,186.153.19.26
925,Michael,Moreno,mmorenopo@alexa.com,Colombia,197.91.17.75
926,Judith,Harrison,jharrisonpp@mediafire.com,China,85.204.35.24
927,Norma,Matthews,nmatthewspq@hao123.com,France,48.86.39.174
928,Steve,Jenkins,sjenkinspr@weibo.com,China,144.48.244.51
929,Timothy,Vasquez,tvasquezps@addtoany.com,Indonesia,188.30.17.158
930,Phillip,Turner,pturnerpt@ftc.gov,Sweden,128.29.188.29
931,Evelyn,Allen,eallenpu@psu.edu,China,66.177.217.140
932,Roy,Romero,rromeropv@timesonline.co.uk,China,178.248.139.158
933,Ann,Fuller,afullerpw@wordpress.org,Indonesia,126.55.213.208
934,Elizabeth,Greene,egreenepx@blinklist.com,China,11.82.152.100
935,Todd,Walker,twalkerpy@naver.com,Indonesia,197.163.59.30
936,Kathy,Austin,kaustinpz@reverbnation.com,Colombia,91.190.105.245
937,Kimberly,Williams,kwilliamsq0@springer.com,China,106.127.166.57
938,Bruce,Lane,blaneq1@epa.gov,Poland,66.91.200.185
939,Chris,Nelson,cnelsonq2@ehow.com,China,153.161.76.2
940,Katherine,Martinez,kmartinezq3@house.gov,China,79.37.81.198
941,Doris,Howell,dhowellq4@usa.gov,Tajikistan,68.195.20.15
942,Scott,Kim,skimq5@chronoengine.com,Czech Republic,210.87.136.4
943,Jeremy,Carter,jcarterq6@hao123.com,Macedonia,141.127.134.59
944,Raymond,Ramos,rramosq7@simplemachines.org,South Africa,215.251.101.12
945,John,Wagner,jwagnerq8@flickr.com,China,24.133.220.36
946,Paula,Brooks,pbrooksq9@nhs.uk,Sri Lanka,240.191.250.166
947,Sharon,Reyes,sreyesqa@mail.ru,New Zealand,47.132.162.137
948,Virginia,Ford,vfordqb@wunderground.com,Russia,15.217.38.225
949,Lois,Stanley,lstanleyqc@cbslocal.com,Colombia,8.37.178.172
950,Johnny,Bryant,jbryantqd@patch.com,France,192.178.211.207
951,Howard,Frazier,hfrazierqe@npr.org,Malaysia,174.236.242.216
952,Katherine,Hall,khallqf@yahoo.com,China,139.116.142.136
953,Peter,Cox,pcoxqg@arstechnica.com,Colombia,220.44.220.64
954,Johnny,Washington,jwashingtonqh@youku.com,Malaysia,193.221.241.217
955,Ann,Green,agreenqi@vimeo.com,France,70.120.14.190
956,Anne,Warren,awarrenqj@foxnews.com,Argentina,214.49.14.94
957,Jennifer,Cook,jcookqk@edublogs.org,China,228.15.130.143
958,Phyllis,Garcia,pgarciaql@gov.uk,Indonesia,202.164.62.114
959,Raymond,Fernandez,rfernandezqm@oracle.com,Indonesia,126.211.226.87
960,Kimberly,Medina,kmedinaqn@noaa.gov,China,57.246.213.210
961,Ruth,Berry,rberryqo@about.com,Iraq,244.124.117.235
962,Janice,Lawson,jlawsonqp@google.fr,Indonesia,118.229.215.170
963,Jimmy,Andrews,jandrewsqq@mapquest.com,Cambodia,112.121.202.246
964,Diane,Black,dblackqr@gov.uk,Uganda,230.236.242.66
965,Jane,Dunn,jdunnqs@apache.org,Philippines,247.49.10.113
966,Jeffrey,Ramos,jramosqt@1und1.de,Indonesia,156.110.64.188
967,Margaret,Watkins,mwatkinsqu@a8.net,Serbia,120.26.16.219
968,Michael,Romero,mromeroqv@163.com,China,54.60.141.220
969,Roger,Little,rlittleqw@foxnews.com,China,166.231.115.189
970,Ashley,Mitchell,amitchellqx@dailymotion.com,Indonesia,218.254.189.126
971,Steve,Weaver,sweaverqy@forbes.com,Indonesia,57.140.62.134
972,Linda,Ortiz,lortizqz@wunderground.com,Portugal,49.36.50.239
973,Anthony,Crawford,acrawfordr0@miitbeian.gov.cn,France,18.223.93.164
974,Nicole,Gray,ngrayr1@desdev.cn,France,234.85.212.26
975,Carlos,Austin,caustinr2@angelfire.com,Sweden,36.188.187.152
976,Antonio,Nguyen,anguyenr3@weebly.com,Togo,121.137.251.191
977,Sandra,Knight,sknightr4@1688.com,Indonesia,21.33.180.60
978,Adam,Parker,aparkerr5@github.io,Czech Republic,110.57.87.84
979,Kathleen,Rose,kroser6@businesswire.com,Madagascar,155.148.238.172
980,Helen,Sanchez,hsanchezr7@fema.gov,United States,34.34.73.221
981,Judith,Ramos,jramosr8@google.cn,China,115.161.78.167
982,Theresa,Sanders,tsandersr9@examiner.com,Mauritius,35.145.229.198
983,Nicole,Gardner,ngardnerra@prweb.com,China,236.108.213.74
984,Sara,Hicks,shicksrb@independent.co.uk,South Korea,213.104.171.208
985,John,Howell,jhowellrc@jalbum.net,Indonesia,54.27.225.42
986,Evelyn,Green,egreenrd@opera.com,China,154.113.120.163
987,Lisa,Henderson,lhendersonre@walmart.com,Russia,57.228.67.166
988,Ann,Ryan,aryanrf@topsy.com,Tunisia,122.179.222.237
989,Karen,Ford,kfordrg@aboutads.info,Greece,10.57.122.86
990,Ruth,Foster,rfosterrh@cornell.edu,China,34.90.148.249
991,Mark,Green,mgreenri@cbslocal.com,China,125.26.47.43
992,Marie,Henderson,mhendersonrj@geocities.com,China,97.157.66.154
993,Donald,Peters,dpetersrk@marriott.com,Indonesia,113.111.103.48
994,Shirley,Spencer,sspencerrl@hhs.gov,Indonesia,34.188.35.128
995,Benjamin,Harper,bharperrm@nifty.com,Peru,25.170.183.144
996,Ryan,Mccoy,rmccoyrn@xrea.com,Guatemala,155.33.60.87
997,Carlos,Mitchell,cmitchellro@thetimes.co.uk,Indonesia,96.110.25.2
998,Randy,Bradley,rbradleyrp@pbs.org,Italy,172.48.71.13
999,Louise,Kelly,lkellyrq@ucoz.ru,Poland,244.49.77.188
1000,Daniel,Jackson,djacksonrr@amazon.com,China,47.253.197.29
